Vaccine Progress
…
Saving 7 x 5 in image

Calculate the rate of vaccinations.

state_level_vax_rates <- state_level_vax |>
 mutate(
    Daily_Shots = TotalDoses - lag(TotalDoses, default = 0),  # Shots administered that day
    Daily_Rate_Percentage = (Daily_Shots / Total_Pop) * 100       # Daily vaccination rate
  )
state_level_vax_rates

# A tibble: 139 × 14
   Date       TotalDoses Total_Pop TotalDoses_12up Total_Pop_12up
   <date>          <dbl>     <dbl>           <dbl>          <dbl>
 1 2020-12-13          0   8882190               0        7618375
 2 2020-12-14          0   8882190               0        7618375
 3 2020-12-15          0   8882190               0        7618375
 4 2020-12-16        368   8882190             368        7618375
 5 2020-12-17       1265   8882190            1265        7618375
 6 2020-12-18       2757   8882190            2757        7618375
 7 2020-12-19       6963   8882190            6963        7618375
 8 2020-12-20       9862   8882190            9862        7618375
 9 2020-12-21      11358   8882190           11358        7618375
10 2020-12-22      11900   8882190           11900        7618375
# ℹ 129 more rows
# ℹ 9 more variables: TotalDoses_18up <dbl>, Total_Pop_18up <dbl>,
#   TotalDoses_65up <dbl>, Total_pct <dbl>, Total_12up_pct <dbl>,
#   Total_18up_pct <dbl>, Total_65_pct <dbl>, Daily_Shots <dbl>,
#   Daily_Rate_Percentage <dbl>
…
outliers <- nj_county_combined_df |>
  st_drop_geometry() |>
  ungroup()|> 
  filter(Date > as.Date("2021-04-29"))|>
  select(-GEOID, -centroid, -Date, -label_x, label_y, -Recip_State)|>
  pivot_longer(cols = -Recip_County, names_to = "Variable", values_to = "Value") |>
  group_by(Variable) |>
  mutate(z_score = scale(Value)) |>
  filter(Recip_County == "Cumberland County") |>
  arrange(desc(abs(z_score)))  # Sort by magnitude of z-scores

# View results
print(outliers)

# A tibble: 45 × 4
# Groups:   Variable [45]
   Recip_County      Variable                                 Value z_score[,1]
   <chr>             <chr>                                    <dbl>       <dbl>
 1 Cumberland County Administered_Dose1_Recip_12PlusPop_Pct    41.1       -2.29
 2 Cumberland County Administered_Dose1_Recip_18PlusPop_Pct    45.1       -2.28
 3 Cumberland County Administered_Dose1_Pop_Pct                34.6       -2.24
 4 Cumberland County Series_Complete_65PlusPop_Pct             47.8       -2.14
 5 Cumberland County Series_Complete_12PlusPop_Pct             25.5       -1.93
 6 Cumberland County Series_Complete_18PlusPop_Pct             28.1       -1.93
 7 Cumberland County Series_Complete_Pop_Pct                   21.5       -1.91
 8 Cumberland County estimate_median_household_income       54587         -1.72
 9 Cumberland County estimate_per_capita_income             29711         -1.68
10 Cumberland County Administered_Dose1_Recip_65PlusPop_Pct    71.1       -1.67
# ℹ 35 more rows
…
