website_main
…
Warning: Expected 2 pieces. Additional pieces discarded in 6 rows [286, 334, 386, 456,
627, 654].

Warning: Expected 2 pieces. Missing pieces filled with `NA` in 180 rows [3, 8, 17, 20,
31, 35, 40, 48, 65, 66, 72, 76, 83, 87, 92, 95, 99, 108, 116, 118, ...].

`summarise()` has grouped output by 'language'. You can override using the
`.groups` argument.

# A tibble: 198 × 3
# Groups:   language [116]
   language `Month of Year` language_total
   <chr>    <date>                   <dbl>
 1 en       2021-03-01             5336246
 2 en       2021-04-01             3114305
 3 es       2021-04-01              270316
 4 es       2021-03-01              210798
 5 zh       2021-04-01               11198
 6 ko       2021-03-01               10570
 7 zh       2021-03-01               10541
 8 ko       2021-04-01                8312
 9 pt       2021-04-01                6168
10 pt       2021-03-01                6042
# ℹ 188 more rows
…
